dump.vcd
$date
Sun Feb  9 10:44:54 2025
$end
$version
Riviera-PRO Version 2023.04.112.8911
$end
$timescale
1 ns
$end

$scope module tb $end

$scope module spi $end
$var reg 1 ! mosi $end
$var reg 1 " miso $end
$var reg 1 # sclk $end
$var reg 1 $ cs $end
$upscope $end


$scope module master $end
$var reg 4 % received_sum [3:0] $end
$var reg 8 & data_to_send [7:0] $end

$scope module dut $end
$var wire 1 ' mosi $end
$var wire 1 ( sclk $end
$var wire 1 ) cs $end
$var reg 1 * miso $end
$var reg 4 + sum [3:0] $end
$var reg 8 , data [7:0] $end
$var reg 2 - op $end
$var reg 3 . a [2:0] $end
$var reg 3 / b [2:0] $end

$scope task add $end
$var reg 3 0 a [2:0] $end
$var reg 3 1 b [2:0] $end
$var reg 2 2 op $end
$upscope $end

$upscope $end


$scope task spi_master $end
$var reg 3 3 a [2:0] $end
$var reg 3 4 b [2:0] $end
$var reg 2 5 op $end
$upscope $end

$upscope $end

$upscope $end


$scope module UnitScopePackage_1 $end
$upscope $end

$enddefinitions $end
$dumpvars
x!
x"
0#
1$
b0 %
b0 &
x'
0(
1)
x*
b0 +
b0 ,
b0 -
b0 .
b0 /
b0 0
b0 1
b0 2
b0 3
b0 4
b0 5
$end
#20
b111 3
b10 4
b111010 &
0$
0)
#25
1#
1(
0!
0'
#35
0#
0(
#45
1#
1(
1!
1'
#55
0#
0(
b10 ,
#65
1#
1(
0!
0'
#75
0#
0(
#85
1#
1(
1!
1'
#95
0#
0(
b1010 ,
#105
1#
1(
#115
0#
0(
b11010 ,
#125
1#
1(
#135
0#
0(
b111010 ,
#145
1#
1(
0!
0'
#155
0#
0(
#165
1#
1(
#175
0#
0(
b111 .
b10 /
b111 0
b10 1
b1001 +
#185
1#
1(
1*
1"
#195
0#
0(
b1 %
#205
1#
1(
0*
0"
#215
0#
0(
#225
1#
1(
#235
0#
0(
#245
1#
1(
1*
1"
#255
0#
0(
b1001 %
#260
1$
1)
b0 +
b0 .
b0 /
#280
b110 4
b1 5
b1111110 &
0$
0)
#285
1#
1(
#295
0#
0(
#305
1#
1(
1!
1'
#315
0#
0(
#325
1#
1(
#335
0#
0(
b111110 ,
#345
1#
1(
#355
0#
0(
#365
1#
1(
#375
0#
0(
#385
1#
1(
#395
0#
0(
#405
1#
1(
#415
0#
0(
b1111110 ,
#425
1#
1(
0!
0'
#435
0#
0(
b1 -
b111 .
b110 /
b110 1
b1 2
b1 +
#445
1#
1(
#455
0#
0(
#465
1#
1(
0*
0"
#475
0#
0(
#485
1#
1(
#495
0#
0(
#505
1#
1(
#515
0#
0(
b1 %
#520
1$
1)
b0 +
b0 -
b0 .
b0 /
#540
b10 5
b10111110 &
0$
0)
#545
1#
1(
#555
0#
0(
#565
1#
1(
1!
1'
#575
0#
0(
#585
1#
1(
#595
0#
0(
#605
1#
1(
#615
0#
0(
#625
1#
1(
#635
0#
0(
#645
1#
1(
#655
0#
0(
#665
1#
1(
0!
0'
#675
0#
0(
b111110 ,
#685
1#
1(
1!
1'
#695
0#
0(
b10111110 ,
b10 -
b111 .
b110 /
b10 2
#705
1#
1(
#715
0#
0(
b0 %
#725
1#
1(
#735
0#
0(
#745
1#
1(
#755
0#
0(
#765
1#
1(
#775
0#
0(
#780
1$
1)
b0 -
b0 .
b0 /
